…
# Example: two-stage exams

``` r
survey_data_raw <- read_csv("twostage_study1_survey.csv", show_col_types = FALSE)

survey_data_clean <- survey_data_raw %>% 
  separate_wider_position(Process, widths = c("Q1" = 1, "Q2" = 1, "Q3" = 1, "Q4" = 1, "Q5" = 1, "Q6" = 1)) %>% 
  separate_wider_position(Discussion, widths = c("Q7" = 1, "Q8" = 1, "Q9" = 1, "Q10" = 1)) %>% 
  filter(!is.na(Q1))

survey_data_clean
```

    ## # A tibble: 48 × 11
    ##    AnonID Q1    Q2    Q3    Q4    Q5    Q6    Q7    Q8    Q9    Q10  
    ##    <chr>  <chr> <chr> <chr> <chr> <chr> <chr> <chr> <chr> <chr> <chr>
    ##  1 S21    1     5     1     5     5     3     1     4     3     4    
    ##  2 S16    1     1     1     1     1     1     1     1     1     1    
    ##  3 S26    2     5     2     1     3     2     1     1     1     1    
    ##  4 S22    1     4     2     2     3     3     2     1     1     2    
    ##  5 S11    1     5     1     1     3     2     2     2     1     2    
    ##  6 S17    1     5     1     2     1     1     1     1     1     1    
    ##  7 S23    1     5     3     1     1     1     1     1     1     1    
    ##  8 S6     2     3     2     2     3     1     2     1     1     2    
    ##  9 S27    1     5     1     2     1     1     1     1     1     1    
    ## 10 S24    1     2     2     3     3     2     1     1     2     2    
    ## # ℹ 38 more rows
…
# Example: course choices

``` r
survey_responses <- read_csv("ANON_course-choices-and-gender.csv", show_col_types = FALSE)
survey_responses
```

    ## # A tibble: 107 × 3
    ##    student gender_group courses                                                 
    ##      <dbl> <chr>        <chr>                                                   
    ##  1       1 Man          Statistics;                                             
    ##  2       2 Woman+       Statistics;                                             
    ##  3       3 Woman+       Applied mathematics;                                    
    ##  4       4 Woman+       Pure mathematics;                                       
    ##  5       5 Woman+       Pure mathematics;Statistics;                            
    ##  6       6 Woman+       Statistics;Applied mathematics;Operational research;    
    ##  7       7 Man          Pure mathematics;Applied mathematics;Operational resear…
    ##  8       8 Man          Statistics;Applied mathematics;Pure mathematics;        
    ##  9       9 <NA>         Pure mathematics;                                       
    ## 10      10 Man          Statistics;Applied mathematics;                         
    ## # ℹ 97 more rows

``` r
course_types_long <- survey_responses %>% 
  separate_longer_delim(cols = courses, delim = ";") %>% 
  filter(courses != "")
course_types_long
```

    ## # A tibble: 213 × 3
    ##    student gender_group courses             
    ##      <dbl> <chr>        <chr>               
    ##  1       1 Man          Statistics          
    ##  2       2 Woman+       Statistics          
    ##  3       3 Woman+       Applied mathematics 
    ##  4       4 Woman+       Pure mathematics    
    ##  5       5 Woman+       Pure mathematics    
    ##  6       5 Woman+       Statistics          
    ##  7       6 Woman+       Statistics          
    ##  8       6 Woman+       Applied mathematics 
    ##  9       6 Woman+       Operational research
    ## 10       7 Man          Pure mathematics    
    ## # ℹ 203 more rows
…
